…
## Movies Rankings

Top rated movies are: Pulp Fiction, Forrest Gump, Silence of the Lambs,
Jurassic Park, etc.

    ## # A tibble: 10,677 x 3
    ## # Groups:   movieId [10,677]
    ##    movieId title                                                      count
    ##      <dbl> <chr>                                                      <int>
    ##  1     296 Pulp Fiction (1994)                                        31362
    ##  2     356 Forrest Gump (1994)                                        31079
    ##  3     593 Silence of the Lambs, The (1991)                           30382
    ##  4     480 Jurassic Park (1993)                                       29360
    ##  5     318 Shawshank Redemption, The (1994)                           28015
    ##  6     110 Braveheart (1995)                                          26212
    ##  7     457 Fugitive, The (1993)                                       25998
    ##  8     589 Terminator 2: Judgment Day (1991)                          25984
    ##  9     260 Star Wars: Episode IV - A New Hope (a.k.a. Star Wars) (19… 25672
    ## 10     150 Apollo 13 (1995)                                           24284
    ## # … with 10,667 more rows
